﻿[
  {
    "Id": 11075,
    "CustomerId": "SIMOB",
    "EmployeeId": 7,
    "OrderDate": "/Date(894412800000-0000)/",
    "RequiredDate": "/Date(896832000000-0000)/",
    "ShipVia": 2,
    "Freight": 18.44,
    "ShipName": "Simons bistro",
    "ShipAddress": "Vinbæltet 34",
    "ShipCity": "Kobenhavn",
    "ShipPostalCode": "1734",
    "ShipCountry": "Denmark",
    "IsShipped": true,
    "UniqueOrderId": "75c68cdb-5557-4415-9b19-8e0135a58855"
  },
  {
    "Id": 11074,
    "CustomerId": "RICSU",
    "EmployeeId": 8,
    "OrderDate": "/Date(894412800000-0000)/",
    "RequiredDate": "/Date(896832000000-0000)/",
    "ShipVia": 2,
    "Freight": 6.19,
    "ShipName": "Richter Supermarkt",
    "ShipAddress": "Starenweg 5",
    "ShipCity": "Genève",
    "ShipPostalCode": "1204",
    "ShipCountry": "Switzerland",
    "IsShipped": true,
    "UniqueOrderId": "05428166-cea0-48db-b698-4e8fb34fdfb0"
  },
  {
    "Id": 11076,
    "CustomerId": "BONAP",
    "EmployeeId": 4,
    "OrderDate": "/Date(894412800000-0000)/",
    "RequiredDate": "/Date(896832000000-0000)/",
    "ShipVia": 2,
    "Freight": 38.28,
    "ShipName": "Bon app'",
    "ShipAddress": "12, rue des Bouchers",
    "ShipCity": "Marseille",
    "ShipPostalCode": "13008",
    "ShipCountry": "France",
    "IsShipped": false,
    "UniqueOrderId": "68df786f-a3ee-4ad1-a6f5-ceb00ca5156d"
  },
  {
    "Id": 11077,
    "CustomerId": "RATTC",
    "EmployeeId": 1,
    "OrderDate": "/Date(894412800000-0000)/",
    "RequiredDate": "/Date(896832000000-0000)/",
    "ShipVia": 2,
    "Freight": 8.53,
    "ShipName": "Rattlesnake Canyon Grocery",
    "ShipAddress": "2817 Milton Dr.",
    "ShipCity": "Albuquerque",
    "ShipRegion": "NM",
    "ShipPostalCode": "87110",
    "ShipCountry": "USA",
    "IsShipped": true,
    "UniqueOrderId": "3738a099-7939-42f1-80c1-2306184b5f0b"
  },
  {
    "Id": 11070,
    "CustomerId": "LEHMS",
    "EmployeeId": 2,
    "OrderDate": "/Date(894326400000-0000)/",
    "RequiredDate": "/Date(896745600000-0000)/",
    "ShipVia": 1,
    "Freight": 136,
    "ShipName": "Lehmanns Marktstand",
    "ShipAddress": "Magazinweg 7",
    "ShipCity": "Frankfurt a.M.",
    "ShipPostalCode": "60528",
    "ShipCountry": "Germany",
    "IsShipped": true,
    "UniqueOrderId": "f97192d2-b618-4263-ba67-c810be1e14d6"
  },
  {
    "Id": 11071,
    "CustomerId": "LILAS",
    "EmployeeId": 1,
    "OrderDate": "/Date(894326400000-0000)/",
    "RequiredDate": "/Date(896745600000-0000)/",
    "ShipVia": 1,
    "Freight": 0.93,
    "ShipName": "LILA-Supermercado",
    "ShipAddress": "Carrera 52 con Ave. Bolívar #65-98 Llano Largo",
    "ShipCity": "Barquisimeto",
    "ShipRegion": "Lara",
    "ShipPostalCode": "3508",
    "ShipCountry": "Venezuela",
    "IsShipped": false,
    "UniqueOrderId": "c03bb0f5-2378-490e-b109-b8e403ed1bd7"
  },
  {
    "Id": 11073,
    "CustomerId": "ERNSH",
    "EmployeeId": 4,
    "OrderDate": "/Date(894326400000-0000)/",
    "RequiredDate": "/Date(896745600000-0000)/",
    "ShipVia": 2,
    "Freight": 258.64,
    "ShipName": "Ernst Handel",
    "ShipAddress": "Kirchgasse 6",
    "ShipCity": "Graz",
    "ShipPostalCode": "8010",
    "ShipCountry": "Austria",
    "IsShipped": true,
    "UniqueOrderId": "77d89938-e7a3-49cf-be94-04bb0d00b393"
  },
  {
    "Id": 11072,
    "CustomerId": "PERIC",
    "EmployeeId": 2,
    "OrderDate": "/Date(894326400000-0000)/",
    "RequiredDate": "/Date(896745600000-0000)/",
    "ShipVia": 2,
    "Freight": 24.95,
    "ShipName": "Pericles Comidas clásicas",
    "ShipAddress": "Calle Dr. Jorge Cash 321",
    "ShipCity": "México D.F.",
    "ShipPostalCode": "05033",
    "ShipCountry": "Mexico",
    "IsShipped": false,
    "UniqueOrderId": "4a56640a-a82b-44fe-a154-2f9d4fc5299e"
  },
  {
    "Id": 11067,
    "CustomerId": "DRACD",
    "EmployeeId": 1,
    "OrderDate": "/Date(894240000000-0000)/",
    "RequiredDate": "/Date(895449600000-0000)/",
    "ShippedDate": "/Date(894412800000-0000)/",
    "ShipVia": 2,
    "Freight": 7.98,
    "ShipName": "Drachenblut Delikatessen",
    "ShipAddress": "Walserweg 21",
    "ShipCity": "Aachen",
    "ShipPostalCode": "52066",
    "ShipCountry": "Germany",
    "IsShipped": true,
    "UniqueOrderId": "b8dd160d-dc66-4e59-9b9f-67d62afdb699"
  },
  {
    "Id": 11069,
    "CustomerId": "QUEE",
    "EmployeeId": 8,
    "OrderDate": "/Date(894240000000-0000)/",
    "RequiredDate": "/Date(896659200000-0000)/",
    "ShipVia": 2,
    "Freight": 81.75,
    "ShipName": "Queen Cozinha",
    "ShipAddress": "Alameda dos Canàrios, 891",
    "ShipCity": "Sao Paulo",
    "ShipRegion": "SP",
    "ShipPostalCode": "05487-020",
    "ShipCountry": "Brazil",
    "IsShipped": true,
    "UniqueOrderId": "bd3814ad-322b-47f5-b9a6-6210220e2514"
  },
  {
    "Id": 11068,
    "CustomerId": "TORTU",
    "EmployeeId": 1,
    "OrderDate": "/Date(894240000000-0000)/",
    "RequiredDate": "/Date(896659200000-0000)/",
    "ShippedDate": "/Date(894412800000-0000)/",
    "ShipVia": 2,
    "Freight": 15.67,
    "ShipName": "Tortuga Restaurante",
    "ShipAddress": "Avda. Azteca 123",
    "ShipCity": "México D.F.",
    "ShipPostalCode": "05033",
    "ShipCountry": "Mexico",
    "IsShipped": false,
    "UniqueOrderId": "328d807e-cba4-4a0e-bfbd-e67c6ae29f70"
  },
  {
    "Id": 11064,
    "CustomerId": "SAVEA",
    "EmployeeId": 1,
    "OrderDate": "/Date(893980800000-0000)/",
    "RequiredDate": "/Date(896400000000-0000)/",
    "ShippedDate": "/Date(894240000000-0000)/",
    "ShipVia": 1,
    "Freight": 30.09,
    "ShipName": "Save-a-lot Markets",
    "ShipAddress": "187 Suffolk Ln.",
    "ShipCity": "Boise",
    "ShipRegion": "ID",
    "ShipPostalCode": "83720",
    "ShipCountry": "USA",
    "IsShipped": true,
    "UniqueOrderId": "1b48c93f-d2b4-4333-b279-86dfca1d8c51"
  },
  {
    "Id": 11065,
    "CustomerId": "LILAS",
    "EmployeeId": 8,
    "OrderDate": "/Date(893980800000-0000)/",
    "RequiredDate": "/Date(896400000000-0000)/",
    "ShipVia": 1,
    "Freight": 12.91,
    "ShipName": "LILA-Supermercado",
    "ShipAddress": "Carrera 52 con Ave. Bolívar #65-98 Llano Largo",
    "ShipCity": "Barquisimeto",
    "ShipRegion": "Lara",
    "ShipPostalCode": "3508",
    "ShipCountry": "Venezuela",
    "IsShipped": false,
    "UniqueOrderId": "667cb9a5-6ea4-4564-aafa-e36670c9d1e9"
  },
  {
    "Id": 11066,
    "CustomerId": "WHITC",
    "EmployeeId": 7,
    "OrderDate": "/Date(893980800000-0000)/",
    "RequiredDate": "/Date(896400000000-0000)/",
    "ShippedDate": "/Date(894240000000-0000)/",
    "ShipVia": 2,
    "Freight": 44.72,
    "ShipName": "White Clover Markets",
    "ShipAddress": "1029 - 12th Ave. S.",
    "ShipCity": "Seattle",
    "ShipRegion": "WA",
    "ShipPostalCode": "98124",
    "ShipCountry": "USA",
    "IsShipped": false,
    "UniqueOrderId": "95843689-3ee0-40ad-9414-d7eed2147862"
  },
  {
    "Id": 11060,
    "CustomerId": "FRANS",
    "EmployeeId": 2,
    "OrderDate": "/Date(893894400000-0000)/",
    "RequiredDate": "/Date(896313600000-0000)/",
    "ShippedDate": "/Date(894240000000-0000)/",
    "ShipVia": 2,
    "Freight": 10.98,
    "ShipName": "Franchi S.p.A.",
    "ShipAddress": "Via Monte Bianco 34",
    "ShipCity": "Torino",
    "ShipPostalCode": "10100",
    "ShipCountry": "Italy",
    "IsShipped": true,
    "UniqueOrderId": "8c157bf2-c5ac-46fe-ae3a-fa4451fafe11"
  },
  {
    "Id": 11061,
    "CustomerId": "GREAL",
    "EmployeeId": 4,
    "OrderDate": "/Date(893894400000-0000)/",
    "RequiredDate": "/Date(897523200000-0000)/",
    "ShipVia": 3,
    "Freight": 14.01,
    "ShipName": "Great Lakes Food Market",
    "ShipAddress": "2732 Baker Blvd.",
    "ShipCity": "Eugene",
    "ShipRegion": "OR",
    "ShipPostalCode": "97403",
    "ShipCountry": "USA",
    "IsShipped": true,
    "UniqueOrderId": "3488981c-c0dc-4abd-bfcb-f540767b5cbf"
  },
  {
    "Id": 11062,
    "CustomerId": "REGGC",
    "EmployeeId": 4,
    "OrderDate": "/Date(893894400000-0000)/",
    "RequiredDate": "/Date(896313600000-0000)/",
    "ShipVia": 2,
    "Freight": 29.93,
    "ShipName": "Reggiani Caseifici",
    "ShipAddress": "Strada Provinciale 124",
    "ShipCity": "Reggio Emilia",
    "ShipPostalCode": "42100",
    "ShipCountry": "Italy",
    "IsShipped": false,
    "UniqueOrderId": "34d7552f-012b-46ab-ac05-0bc9eaabceee"
  },
  {
    "Id": 11063,
    "CustomerId": "HUNGO",
    "EmployeeId": 3,
    "OrderDate": "/Date(893894400000-0000)/",
    "RequiredDate": "/Date(896313600000-0000)/",
    "ShippedDate": "/Date(894412800000-0000)/",
    "ShipVia": 2,
    "Freight": 81.73,
    "ShipName": "Hungry Owl All-Night Grocers",
    "ShipAddress": "8 Johnstown Road",
    "ShipCity": "Cork",
    "ShipRegion": "Co. Cork",
    "ShipCountry": "Ireland",
    "IsShipped": true,
    "UniqueOrderId": "2c489e95-dd41-43ab-8d6d-45c34dbd61e0"
  },
  {
    "Id": 11057,
    "CustomerId": "NORTS",
    "EmployeeId": 3,
    "OrderDate": "/Date(893808000000-0000)/",
    "RequiredDate": "/Date(896227200000-0000)/",
    "ShippedDate": "/Date(893980800000-0000)/",
    "ShipVia": 3,
    "Freight": 4.13,
    "ShipName": "North/South",
    "ShipAddress": "South House 300 Queensbridge",
    "ShipCity": "London",
    "ShipPostalCode": "SW7 1RZ",
    "ShipCountry": "UK",
    "IsShipped": false,
    "UniqueOrderId": "116b430d-256e-46eb-9641-a4eabe9c0832"
  },
  {
    "Id": 11058,
    "CustomerId": "BLAUS",
    "EmployeeId": 9,
    "OrderDate": "/Date(893808000000-0000)/",
    "RequiredDate": "/Date(896227200000-0000)/",
    "ShipVia": 3,
    "Freight": 31.14,
    "ShipName": "Blauer See Delikatessen",
    "ShipAddress": "Forsterstr. 57",
    "ShipCity": "Mannheim",
    "ShipPostalCode": "68306",
    "ShipCountry": "Germany",
    "IsShipped": true,
    "UniqueOrderId": "36fecedd-77d2-4388-93c0-fffdd4d312b7"
  }
]